%YAML 1.1
%TAG !u! tag:unity3d.com,2011:
--- !u!1 &100000
GameObject:
  m_ObjectHideFlags: 0
  m_PrefabParentObject: {fileID: 0}
  m_PrefabInternal: {fileID: 100100000}
  serializedVersion: 4
  m_Component:
  - 4: {fileID: 400000}
  - 114: {fileID: 11400000}
  m_Layer: 0
  m_Name: Deanna
  m_TagString: Untagged
  m_Icon: {fileID: 0}
  m_NavMeshLayer: 0
  m_StaticEditorFlags: 0
  m_IsActive: 1
--- !u!4 &400000
Transform:
  m_ObjectHideFlags: 1
  m_PrefabParentObject: {fileID: 0}
  m_PrefabInternal: {fileID: 100100000}
  m_GameObject: {fileID: 100000}
  m_LocalRotation: {x: 0, y: 0, z: 0, w: 1}
  m_LocalPosition: {x: 0, y: 0, z: 0}
  m_LocalScale: {x: 1, y: 1, z: 1}
  m_LocalEulerAnglesHint: {x: 0, y: 0, z: 0}
  m_Children: []
  m_Father: {fileID: 0}
  m_RootOrder: 0
--- !u!114 &11400000
MonoBehaviour:
  m_ObjectHideFlags: 1
  m_PrefabParentObject: {fileID: 0}
  m_PrefabInternal: {fileID: 100100000}
  m_GameObject: {fileID: 100000}
  m_Enabled: 1
  m_EditorHideFlags: 0
  m_Script: {fileID: 11500000, guid: 0b4eb3a400afab046abb8471a9d746d6, type: 3}
  m_Name: 
  m_EditorClassIdentifier: 
  mMat: {fileID: 0}
  mUVRect:
    x: 0
    y: 0
    width: 1
    height: 1
  mFont:
    mSize: 0
    mBase: 0
    mWidth: 0
    mHeight: 0
    mSpriteName: 
    mSaved: []
  mSpacingX: 0
  mSpacingY: 0
  mAtlas: {fileID: 0}
  mReplacement: {fileID: 0}
  mPixelSize: 1
  mSymbols: []
  mDynamicFont: {fileID: 12800000, guid: 1ddbbfca30d75468aaeab1ae038bc36b, type: 3}
  mDynamicFontSize: 18
  mDynamicFontStyle: 0
  mDynamicFontOffset: 17
  mSprite:
    name: 556e69747920427567
    outer:
      x: 0
      y: 0
      width: 1
      height: 1
    inner:
      x: 0
      y: 0
      width: 1
      height: 1
    rotated: 0
    paddingLeft: 0
    paddingRight: 0
    paddingTop: 0
    paddingBottom: 0
  mPMA: 0
  mSpriteSet: 0
  mColors:
  - r: 1
    g: 1
    b: 1
    a: 1
--- !u!1001 &100100000
Prefab:
  m_ObjectHideFlags: 1
  serializedVersion: 2
  m_Modification:
    m_TransformParent: {fileID: 0}
    m_Modifications: []
    m_RemovedComponents: []
  m_ParentPrefab: {fileID: 0}
  m_RootGameObject: {fileID: 100000}
  m_IsPrefabParent: 1
